G75*
G70*
%OFA0B0*%
%FSLAX24Y24*%
%IPPOS*%
%LPD*%
%AMOC8*
5,1,8,0,0,1.08239X$1,22.5*
%
%ADD10C,0.0030*%
D10*
X049802Y051206D02*
X049899Y051302D01*
X049851Y051302D01*
X049851Y051351D01*
X049899Y051351D01*
X049899Y051302D01*
X049701Y051302D02*
X049701Y051448D01*
X049653Y051496D01*
X049556Y051496D01*
X049508Y051448D01*
X049406Y051496D02*
X049261Y051496D01*
X049213Y051448D01*
X049213Y051351D01*
X049261Y051302D01*
X049406Y051302D01*
X049508Y051302D02*
X049508Y051593D01*
X049458Y051775D02*
X049458Y052065D01*
X049604Y052065D01*
X049652Y052017D01*
X049652Y051920D01*
X049604Y051872D01*
X049458Y051872D01*
X049555Y051872D02*
X049652Y051775D01*
X049753Y051823D02*
X049801Y051775D01*
X049947Y051775D01*
X049947Y051968D01*
X050048Y051968D02*
X050144Y051968D01*
X050096Y052017D02*
X050096Y051823D01*
X050144Y051775D01*
X050293Y051823D02*
X050341Y051775D01*
X050293Y051823D02*
X050293Y052017D01*
X050341Y051968D02*
X050244Y051968D01*
X050441Y051920D02*
X050489Y051968D01*
X050586Y051968D01*
X050634Y051920D01*
X050634Y051872D01*
X050441Y051872D01*
X050441Y051920D02*
X050441Y051823D01*
X050489Y051775D01*
X050586Y051775D01*
X050735Y051775D02*
X050735Y051968D01*
X050735Y051872D02*
X050832Y051968D01*
X050880Y051968D01*
X050931Y051593D02*
X050883Y051544D01*
X050931Y051593D02*
X051028Y051593D01*
X051076Y051544D01*
X051076Y051496D01*
X050883Y051302D01*
X051076Y051302D01*
X051177Y051302D02*
X051371Y051302D01*
X051274Y051302D02*
X051274Y051593D01*
X051177Y051496D01*
X050781Y051544D02*
X050588Y051351D01*
X050636Y051302D01*
X050733Y051302D01*
X050781Y051351D01*
X050781Y051544D01*
X050733Y051593D01*
X050636Y051593D01*
X050588Y051544D01*
X050588Y051351D01*
X050487Y051302D02*
X050293Y051302D01*
X050487Y051496D01*
X050487Y051544D01*
X050438Y051593D01*
X050342Y051593D01*
X050293Y051544D01*
X049753Y051823D02*
X049753Y051968D01*
X049801Y052065D02*
X049801Y052113D01*
X049898Y052113D02*
X049898Y052065D01*
X049063Y051920D02*
X049014Y051968D01*
X048917Y051968D01*
X048869Y051920D01*
X048869Y051823D01*
X048917Y051775D01*
X049014Y051775D01*
X049063Y051823D01*
X049063Y051920D01*
X048769Y051968D02*
X048624Y051872D01*
X048769Y051775D01*
X048624Y051775D02*
X048624Y052065D01*
X048476Y052065D02*
X048476Y052113D01*
X048476Y051968D02*
X048476Y051775D01*
X048524Y051775D02*
X048427Y051775D01*
X048326Y051872D02*
X048132Y051872D01*
X048132Y051920D02*
X048181Y051968D01*
X048278Y051968D01*
X048326Y051920D01*
X048326Y051872D01*
X048278Y051775D02*
X048181Y051775D01*
X048132Y051823D01*
X048132Y051920D01*
X048031Y051872D02*
X048031Y052065D01*
X047838Y052065D02*
X047838Y051872D01*
X047935Y051775D01*
X048031Y051872D01*
X048031Y051593D02*
X047838Y051593D01*
X047935Y051593D02*
X047935Y051302D01*
X048132Y051351D02*
X048181Y051399D01*
X048326Y051399D01*
X048326Y051448D02*
X048326Y051302D01*
X048181Y051302D01*
X048132Y051351D01*
X048181Y051496D02*
X048278Y051496D01*
X048326Y051448D01*
X048427Y051593D02*
X048476Y051593D01*
X048476Y051302D01*
X048524Y051302D02*
X048427Y051302D01*
X048720Y051302D02*
X048720Y051593D01*
X048624Y051593D02*
X048817Y051593D01*
X048918Y051448D02*
X048967Y051496D01*
X049063Y051496D01*
X049112Y051448D01*
X049112Y051399D01*
X048918Y051399D01*
X048918Y051351D02*
X048918Y051448D01*
X048918Y051351D02*
X048967Y051302D01*
X049063Y051302D01*
X048476Y051968D02*
X048427Y051968D01*
M02*
