G75*
G70*
%OFA0B0*%
%FSLAX24Y24*%
%IPPOS*%
%LPD*%
%AMOC8*
5,1,8,0,0,1.08239X$1,22.5*
%
%ADD10C,0.0079*%
D10*
X038925Y048059D02*
X038925Y053256D01*
X041051Y053256D01*
X041051Y048059D01*
X038925Y048059D01*
M02*
