<?xml version="1.0" encoding="utf-8"?>
<!DOCTYPE eagle SYSTEM "eagle.dtd">
<eagle version="6.1">
<drawing>
<settings>
<setting alwaysvectorfont="no"/>
<setting verticaltext="up"/>
</settings>
<grid distance="0.1" unitdist="inch" unit="inch" style="lines" multiple="1" display="yes" altdistance="0.01" altunitdist="inch" altunit="inch"/>
<layers>
<layer number="1" name="Top" color="4" fill="1" visible="yes" active="yes"/>
<layer number="2" name="Route2" color="1" fill="3" visible="no" active="yes"/>
<layer number="3" name="Route3" color="4" fill="3" visible="no" active="yes"/>
<layer number="4" name="Route4" color="1" fill="4" visible="no" active="yes"/>
<layer number="5" name="Route5" color="4" fill="4" visible="no" active="yes"/>
<layer number="6" name="Route6" color="1" fill="8" visible="no" active="yes"/>
<layer number="7" name="Route7" color="4" fill="8" visible="no" active="yes"/>
<layer number="8" name="Route8" color="1" fill="2" visible="no" active="yes"/>
<layer number="9" name="Route9" color="4" fill="2" visible="no" active="yes"/>
<layer number="10" name="Route10" color="1" fill="7" visible="no" active="yes"/>
<layer number="11" name="Route11" color="4" fill="7" visible="no" active="yes"/>
<layer number="12" name="Route12" color="1" fill="5" visible="no" active="yes"/>
<layer number="13" name="Route13" color="4" fill="5" visible="no" active="yes"/>
<layer number="14" name="Route14" color="1" fill="6" visible="no" active="yes"/>
<layer number="15" name="Route15" color="4" fill="6" visible="no" active="yes"/>
<layer number="16" name="Bottom" color="1" fill="1" visible="yes" active="yes"/>
<layer number="17" name="Pads" color="2" fill="1" visible="yes" active="yes"/>
<layer number="18" name="Vias" color="2" fill="1" visible="yes" active="yes"/>
<layer number="19" name="Unrouted" color="6" fill="1" visible="yes" active="yes"/>
<layer number="20" name="Dimension" color="15" fill="1" visible="yes" active="yes"/>
<layer number="21" name="tPlace" color="7" fill="1" visible="yes" active="yes"/>
<layer number="22" name="bPlace" color="7" fill="1" visible="yes" active="yes"/>
<layer number="23" name="tOrigins" color="15" fill="1" visible="yes" active="yes"/>
<layer number="24" name="bOrigins" color="15" fill="1" visible="yes" active="yes"/>
<layer number="25" name="tNames" color="7" fill="1" visible="yes" active="yes"/>
<layer number="26" name="bNames" color="7" fill="1" visible="yes" active="yes"/>
<layer number="27" name="tValues" color="7" fill="1" visible="yes" active="yes"/>
<layer number="28" name="bValues" color="7" fill="1" visible="yes" active="yes"/>
<layer number="29" name="tStop" color="7" fill="3" visible="no" active="yes"/>
<layer number="30" name="bStop" color="7" fill="6" visible="no" active="yes"/>
<layer number="31" name="tCream" color="7" fill="4" visible="no" active="yes"/>
<layer number="32" name="bCream" color="7" fill="5" visible="no" active="yes"/>
<layer number="33" name="tFinish" color="6" fill="3" visible="no" active="yes"/>
<layer number="34" name="bFinish" color="6" fill="6" visible="no" active="yes"/>
<layer number="35" name="tGlue" color="7" fill="4" visible="no" active="yes"/>
<layer number="36" name="bGlue" color="7" fill="5" visible="no" active="yes"/>
<layer number="37" name="tTest" color="7" fill="1" visible="no" active="yes"/>
<layer number="38" name="bTest" color="7" fill="1" visible="no" active="yes"/>
<layer number="39" name="tKeepout" color="4" fill="11" visible="yes" active="yes"/>
<layer number="40" name="bKeepout" color="1" fill="11" visible="yes" active="yes"/>
<layer number="41" name="tRestrict" color="4" fill="10" visible="yes" active="yes"/>
<layer number="42" name="bRestrict" color="1" fill="10" visible="yes" active="yes"/>
<layer number="43" name="vRestrict" color="2" fill="10" visible="yes" active="yes"/>
<layer number="44" name="Drills" color="7" fill="1" visible="no" active="yes"/>
<layer number="45" name="Holes" color="7" fill="1" visible="no" active="yes"/>
<layer number="46" name="Milling" color="3" fill="1" visible="no" active="yes"/>
<layer number="47" name="Measures" color="7" fill="1" visible="no" active="yes"/>
<layer number="48" name="Document" color="7" fill="1" visible="yes" active="yes"/>
<layer number="49" name="Reference" color="7" fill="1" visible="yes" active="yes"/>
<layer number="50" name="dxf" color="7" fill="1" visible="no" active="no"/>
<layer number="51" name="tDocu" color="7" fill="1" visible="yes" active="yes"/>
<layer number="52" name="bDocu" color="7" fill="1" visible="yes" active="yes"/>
<layer number="53" name="tGND_GNDA" color="7" fill="1" visible="no" active="no"/>
<layer number="54" name="bGND_GNDA" color="7" fill="1" visible="no" active="no"/>
<layer number="56" name="wert" color="7" fill="1" visible="no" active="no"/>
<layer number="57" name="tCAD" color="7" fill="1" visible="no" active="no"/>
<layer number="88" name="SimResults" color="7" fill="1" visible="yes" active="yes"/>
<layer number="89" name="SimProbes" color="7" fill="1" visible="yes" active="yes"/>
<layer number="90" name="Modules" color="5" fill="1" visible="yes" active="yes"/>
<layer number="91" name="Nets" color="2" fill="1" visible="yes" active="yes"/>
<layer number="92" name="Busses" color="1" fill="1" visible="yes" active="yes"/>
<layer number="93" name="Pins" color="2" fill="1" visible="yes" active="yes"/>
<layer number="94" name="Symbols" color="4" fill="1" visible="yes" active="yes"/>
<layer number="95" name="Names" color="7" fill="1" visible="yes" active="yes"/>
<layer number="96" name="Values" color="7" fill="1" visible="yes" active="yes"/>
<layer number="97" name="Info" color="7" fill="1" visible="yes" active="yes"/>
<layer number="98" name="Guide" color="6" fill="1" visible="yes" active="yes"/>
<layer number="99" name="SpiceOrder" color="7" fill="1" visible="no" active="no"/>
<layer number="100" name="Muster" color="7" fill="1" visible="yes" active="yes"/>
<layer number="101" name="Patch_Top" color="7" fill="1" visible="yes" active="yes"/>
<layer number="102" name="Vscore" color="7" fill="1" visible="yes" active="yes"/>
<layer number="103" name="ATT_MISO" color="7" fill="1" visible="yes" active="yes"/>
<layer number="104" name="Name" color="7" fill="1" visible="yes" active="yes"/>
<layer number="105" name="Beschreib" color="7" fill="1" visible="yes" active="yes"/>
<layer number="106" name="BGA-Top" color="7" fill="1" visible="yes" active="yes"/>
<layer number="107" name="BD-Top" color="7" fill="1" visible="yes" active="yes"/>
<layer number="108" name="centerline" color="7" fill="1" visible="yes" active="yes"/>
<layer number="109" name="fp9" color="7" fill="1" visible="yes" active="yes"/>
<layer number="110" name="fp0" color="7" fill="1" visible="yes" active="yes"/>
<layer number="111" name="KASTMAAT1" color="7" fill="1" visible="yes" active="yes"/>
<layer number="112" name="KASTMAAT2" color="7" fill="1" visible="yes" active="yes"/>
<layer number="113" name="FRNTTEKEN" color="7" fill="1" visible="yes" active="yes"/>
<layer number="114" name="FRNTMAAT1" color="7" fill="1" visible="yes" active="yes"/>
<layer number="115" name="FRNTMAAT2" color="7" fill="1" visible="yes" active="yes"/>
<layer number="116" name="Patch_BOT" color="7" fill="1" visible="yes" active="yes"/>
<layer number="117" name="BACKMAAT1" color="7" fill="1" visible="yes" active="yes"/>
<layer number="118" name="BACKMAAT2" color="7" fill="1" visible="yes" active="yes"/>
<layer number="119" name="KAP_TEKEN" color="7" fill="1" visible="yes" active="yes"/>
<layer number="120" name="KAP_MAAT1" color="7" fill="1" visible="yes" active="yes"/>
<layer number="121" name="_tsilk" color="7" fill="1" visible="yes" active="yes"/>
<layer number="122" name="_bsilk" color="7" fill="1" visible="yes" active="yes"/>
<layer number="123" name="tTestmark" color="7" fill="1" visible="yes" active="yes"/>
<layer number="124" name="bTestmark" color="7" fill="1" visible="yes" active="yes"/>
<layer number="125" name="_tNames" color="7" fill="1" visible="yes" active="yes"/>
<layer number="126" name="BIFRNTMAT" color="7" fill="1" visible="yes" active="yes"/>
<layer number="127" name="punktiir" color="7" fill="1" visible="yes" active="yes"/>
<layer number="128" name="_bValues" color="7" fill="1" visible="yes" active="yes"/>
<layer number="129" name="Mask" color="7" fill="1" visible="yes" active="yes"/>
<layer number="130" name="SMDSTROOK" color="7" fill="1" visible="yes" active="yes"/>
<layer number="131" name="prix" color="7" fill="1" visible="yes" active="yes"/>
<layer number="132" name="test" color="7" fill="1" visible="yes" active="yes"/>
<layer number="133" name="mtFinish" color="7" fill="1" visible="yes" active="yes"/>
<layer number="134" name="mbFinish" color="7" fill="1" visible="yes" active="yes"/>
<layer number="135" name="mtGlue" color="7" fill="1" visible="yes" active="yes"/>
<layer number="136" name="mbGlue" color="7" fill="1" visible="yes" active="yes"/>
<layer number="137" name="mtTest" color="7" fill="1" visible="yes" active="yes"/>
<layer number="138" name="mbTest" color="7" fill="1" visible="yes" active="yes"/>
<layer number="139" name="mtKeepout" color="7" fill="1" visible="yes" active="yes"/>
<layer number="140" name="mbKeepout" color="7" fill="1" visible="yes" active="yes"/>
<layer number="141" name="mtRestrict" color="7" fill="1" visible="yes" active="yes"/>
<layer number="142" name="mbRestrict" color="7" fill="1" visible="yes" active="yes"/>
<layer number="143" name="mvRestrict" color="7" fill="1" visible="yes" active="yes"/>
<layer number="144" name="Drill_legend" color="7" fill="1" visible="yes" active="yes"/>
<layer number="145" name="mHoles" color="7" fill="1" visible="yes" active="yes"/>
<layer number="146" name="mMilling" color="7" fill="1" visible="yes" active="yes"/>
<layer number="147" name="mMeasures" color="7" fill="1" visible="yes" active="yes"/>
<layer number="148" name="mDocument" color="7" fill="1" visible="yes" active="yes"/>
<layer number="149" name="mReference" color="7" fill="1" visible="yes" active="yes"/>
<layer number="150" name="Notes" color="7" fill="1" visible="yes" active="yes"/>
<layer number="151" name="HeatSink" color="7" fill="1" visible="yes" active="yes"/>
<layer number="152" name="_bDocu" color="7" fill="1" visible="yes" active="yes"/>
<layer number="153" name="FabDoc1" color="7" fill="1" visible="yes" active="yes"/>
<layer number="154" name="FabDoc2" color="7" fill="1" visible="yes" active="yes"/>
<layer number="155" name="FabDoc3" color="7" fill="1" visible="yes" active="yes"/>
<layer number="191" name="mNets" color="7" fill="1" visible="yes" active="yes"/>
<layer number="192" name="mBusses" color="7" fill="1" visible="yes" active="yes"/>
<layer number="193" name="mPins" color="7" fill="1" visible="yes" active="yes"/>
<layer number="194" name="mSymbols" color="7" fill="1" visible="yes" active="yes"/>
<layer number="195" name="mNames" color="7" fill="1" visible="yes" active="yes"/>
<layer number="196" name="mValues" color="7" fill="1" visible="yes" active="yes"/>
<layer number="199" name="Contour" color="7" fill="1" visible="yes" active="yes"/>
<layer number="200" name="200bmp" color="7" fill="1" visible="yes" active="yes"/>
<layer number="201" name="201bmp" color="7" fill="1" visible="yes" active="yes"/>
<layer number="202" name="202bmp" color="7" fill="1" visible="yes" active="yes"/>
<layer number="203" name="203bmp" color="7" fill="1" visible="yes" active="yes"/>
<layer number="204" name="204bmp" color="7" fill="1" visible="yes" active="yes"/>
<layer number="205" name="205bmp" color="7" fill="1" visible="yes" active="yes"/>
<layer number="206" name="206bmp" color="7" fill="1" visible="yes" active="yes"/>
<layer number="207" name="207bmp" color="7" fill="1" visible="yes" active="yes"/>
<layer number="208" name="208bmp" color="7" fill="1" visible="yes" active="yes"/>
<layer number="209" name="209bmp" color="7" fill="1" visible="yes" active="yes"/>
<layer number="210" name="210bmp" color="7" fill="1" visible="yes" active="yes"/>
<layer number="211" name="211bmp" color="7" fill="1" visible="yes" active="yes"/>
<layer number="212" name="212bmp" color="7" fill="1" visible="yes" active="yes"/>
<layer number="213" name="213bmp" color="7" fill="1" visible="yes" active="yes"/>
<layer number="214" name="214bmp" color="7" fill="1" visible="yes" active="yes"/>
<layer number="215" name="215bmp" color="7" fill="1" visible="yes" active="yes"/>
<layer number="216" name="216bmp" color="7" fill="1" visible="yes" active="yes"/>
<layer number="217" name="217bmp" color="7" fill="1" visible="yes" active="yes"/>
<layer number="218" name="218bmp" color="7" fill="1" visible="yes" active="yes"/>
<layer number="219" name="219bmp" color="7" fill="1" visible="yes" active="yes"/>
<layer number="220" name="220bmp" color="7" fill="1" visible="yes" active="yes"/>
<layer number="221" name="221bmp" color="7" fill="1" visible="yes" active="yes"/>
<layer number="222" name="222bmp" color="7" fill="1" visible="yes" active="yes"/>
<layer number="223" name="223bmp" color="7" fill="1" visible="yes" active="yes"/>
<layer number="224" name="224bmp" color="7" fill="1" visible="yes" active="yes"/>
<layer number="225" name="225bmp" color="7" fill="1" visible="yes" active="yes"/>
<layer number="226" name="226bmp" color="7" fill="1" visible="yes" active="yes"/>
<layer number="227" name="227bmp" color="7" fill="1" visible="yes" active="yes"/>
<layer number="228" name="228bmp" color="7" fill="1" visible="yes" active="yes"/>
<layer number="229" name="229bmp" color="7" fill="1" visible="yes" active="yes"/>
<layer number="230" name="230bmp" color="7" fill="1" visible="yes" active="yes"/>
<layer number="231" name="231bmp" color="7" fill="1" visible="yes" active="yes"/>
<layer number="232" name="Eagle3D_PG2" color="7" fill="1" visible="yes" active="yes"/>
<layer number="233" name="Eagle3D_PG3" color="7" fill="1" visible="yes" active="yes"/>
<layer number="248" name="Housing" color="7" fill="1" visible="yes" active="yes"/>
<layer number="249" name="Edge" color="7" fill="1" visible="yes" active="yes"/>
<layer number="250" name="Descript" color="7" fill="1" visible="yes" active="yes"/>
<layer number="251" name="SMDround" color="7" fill="1" visible="yes" active="yes"/>
<layer number="254" name="cooling" color="7" fill="1" visible="yes" active="yes"/>
<layer number="255" name="Accent" color="7" fill="1" visible="yes" active="yes"/>
</layers>
<library>
<packages>
<package name="SOT-23-6">
<wire x1="1.5" y1="0.8" x2="1.5" y2="-0.8" width="0.2" layer="21"/>
<wire x1="-1.5" y1="-0.8" x2="-1.5" y2="0.8" width="0.2" layer="21"/>
<smd name="1" x="-0.95" y="-1.3" dx="0.55" dy="1.2" layer="1"/>
<smd name="2" x="0" y="-1.3" dx="0.55" dy="1.2" layer="1"/>
<smd name="3" x="0.95" y="-1.3" dx="0.55" dy="1.2" layer="1"/>
<smd name="4" x="0.95" y="1.3" dx="0.55" dy="1.2" layer="1"/>
<smd name="6" x="-0.95" y="1.3" dx="0.55" dy="1.2" layer="1"/>
<text x="-2.1" y="-1.7" size="0.8128" layer="25" font="vector" rot="R90">&gt;Name</text>
<smd name="5" x="0" y="1.3" dx="0.55" dy="1.2" layer="1"/>
<text x="-1.4" y="-2.7" size="1.27" layer="21" font="vector" ratio="15" rot="R90">&gt;o</text>
<wire x1="-1.6" y1="-1.9" x2="1.6" y2="-1.9" width="0.2" layer="51"/>
<wire x1="1.6" y1="-1.9" x2="1.6" y2="1.9" width="0.2" layer="51"/>
<wire x1="1.6" y1="1.9" x2="-1.6" y2="1.9" width="0.2" layer="51"/>
<wire x1="-1.6" y1="1.9" x2="-1.6" y2="-1.9" width="0.2" layer="51"/>
<circle x="-1" y="-1.3" radius="0.282840625" width="0.2" layer="51"/>
<text x="-1.3" y="-0.3" size="0.8128" layer="51" font="vector">&gt;Name</text>
</package>
</packages>
<symbols>
<symbol name="OPAMP">
<pin name="-" x="-7.62" y="2.54" visible="pad" length="short" direction="pas"/>
<pin name="+" x="-7.62" y="-2.54" visible="pad" length="short" direction="pas"/>
<pin name="OUT" x="12.7" y="0" visible="pad" length="short" direction="pas" rot="R180"/>
<pin name="V+" x="2.54" y="5.08" visible="pad" length="point" direction="pwr" rot="R270"/>
<pin name="V-" x="2.54" y="-5.08" visible="pad" length="point" direction="pwr" rot="R90"/>
<wire x1="-5.08" y1="5.08" x2="-5.08" y2="-5.08" width="0.254" layer="94"/>
<wire x1="-5.08" y1="-5.08" x2="2.54" y2="-2.54" width="0.254" layer="94"/>
<wire x1="2.54" y1="-2.54" x2="10.16" y2="0" width="0.254" layer="94"/>
<wire x1="10.16" y1="0" x2="2.54" y2="2.54" width="0.254" layer="94"/>
<text x="-4.318" y="1.778" size="1.778" layer="95" font="vector">-</text>
<text x="-4.318" y="-3.302" size="1.778" layer="95" font="vector">+</text>
<text x="1.016" y="0.254" size="1.778" layer="95" font="vector">V+</text>
<text x="1.016" y="-2.286" size="1.778" layer="95" font="vector">V-</text>
<text x="-7.62" y="7.62" size="1.778" layer="95" font="vector">&gt;Name</text>
<text x="-7.62" y="-10.16" size="1.778" layer="96" font="vector">&gt;Value</text>
<wire x1="2.54" y1="2.54" x2="-5.08" y2="5.08" width="0.254" layer="94"/>
<wire x1="2.54" y1="2.54" x2="2.54" y2="5.08" width="0.1778" layer="94"/>
<wire x1="2.54" y1="-2.54" x2="2.54" y2="-5.08" width="0.1778" layer="94"/>
<pin name="/SHDN" x="0" y="-5.08" visible="pad" length="point" direction="in" rot="R90"/>
<wire x1="0" y1="-5.08" x2="0" y2="-3.429" width="0.1778" layer="94"/>
<text x="0.254" y="-2.794" size="1.778" layer="95" font="vector" rot="R90">/SD</text>
</symbol>
</symbols>
<devicesets>
<deviceset name="OPAMP">
<gates>
<gate name="G$1" symbol="OPAMP" x="0" y="0"/>
</gates>
<devices>
<device name="" package="SOT-23-6">
<connects>
<connect gate="G$1" pin="+" pad="1"/>
<connect gate="G$1" pin="-" pad="3"/>
<connect gate="G$1" pin="/SHDN" pad="5"/>
<connect gate="G$1" pin="OUT" pad="4"/>
<connect gate="G$1" pin="V+" pad="6"/>
<connect gate="G$1" pin="V-" pad="2"/>
</connects>
<technologies>
<technology name=""/>
</technologies>
</device>
</devices>
</deviceset>
</devicesets>
</library>
</drawing>
</eagle>
