<?xml version="1.0" encoding="utf-8"?>
<!DOCTYPE eagle SYSTEM "eagle.dtd">
<eagle version="6.1">
<drawing>
<settings>
<setting alwaysvectorfont="no"/>
<setting verticaltext="up"/>
</settings>
<grid distance="0.1" unitdist="mm" unit="mm" style="lines" multiple="1" display="yes" altdistance="0.025" altunitdist="inch" altunit="inch"/>
<layers>
<layer number="1" name="Top" color="4" fill="1" visible="yes" active="yes"/>
<layer number="2" name="Route2" color="1" fill="3" visible="yes" active="yes"/>
<layer number="3" name="Route3" color="4" fill="3" visible="yes" active="yes"/>
<layer number="4" name="Route4" color="1" fill="4" visible="yes" active="yes"/>
<layer number="5" name="Route5" color="4" fill="4" visible="yes" active="yes"/>
<layer number="6" name="Route6" color="1" fill="8" visible="yes" active="yes"/>
<layer number="7" name="Route7" color="4" fill="8" visible="yes" active="yes"/>
<layer number="8" name="Route8" color="1" fill="2" visible="yes" active="yes"/>
<layer number="9" name="Route9" color="4" fill="2" visible="yes" active="yes"/>
<layer number="10" name="Route10" color="1" fill="7" visible="yes" active="yes"/>
<layer number="11" name="Route11" color="4" fill="7" visible="yes" active="yes"/>
<layer number="12" name="Route12" color="1" fill="5" visible="yes" active="yes"/>
<layer number="13" name="Route13" color="4" fill="5" visible="yes" active="yes"/>
<layer number="14" name="Route14" color="1" fill="6" visible="yes" active="yes"/>
<layer number="15" name="Route15" color="4" fill="6" visible="yes" active="yes"/>
<layer number="16" name="Bottom" color="1" fill="1" visible="yes" active="yes"/>
<layer number="17" name="Pads" color="2" fill="1" visible="yes" active="yes"/>
<layer number="18" name="Vias" color="2" fill="1" visible="yes" active="yes"/>
<layer number="19" name="Unrouted" color="6" fill="1" visible="yes" active="yes"/>
<layer number="20" name="Dimension" color="15" fill="1" visible="yes" active="yes"/>
<layer number="21" name="tPlace" color="7" fill="1" visible="yes" active="yes"/>
<layer number="22" name="bPlace" color="7" fill="1" visible="yes" active="yes"/>
<layer number="23" name="tOrigins" color="15" fill="1" visible="yes" active="yes"/>
<layer number="24" name="bOrigins" color="15" fill="1" visible="yes" active="yes"/>
<layer number="25" name="tNames" color="7" fill="1" visible="yes" active="yes"/>
<layer number="26" name="bNames" color="7" fill="1" visible="yes" active="yes"/>
<layer number="27" name="tValues" color="7" fill="1" visible="yes" active="yes"/>
<layer number="28" name="bValues" color="7" fill="1" visible="yes" active="yes"/>
<layer number="29" name="tStop" color="7" fill="3" visible="yes" active="yes"/>
<layer number="30" name="bStop" color="7" fill="6" visible="yes" active="yes"/>
<layer number="31" name="tCream" color="7" fill="4" visible="yes" active="yes"/>
<layer number="32" name="bCream" color="7" fill="5" visible="yes" active="yes"/>
<layer number="33" name="tFinish" color="6" fill="3" visible="yes" active="yes"/>
<layer number="34" name="bFinish" color="6" fill="6" visible="yes" active="yes"/>
<layer number="35" name="tGlue" color="7" fill="4" visible="yes" active="yes"/>
<layer number="36" name="bGlue" color="7" fill="5" visible="yes" active="yes"/>
<layer number="37" name="tTest" color="7" fill="1" visible="yes" active="yes"/>
<layer number="38" name="bTest" color="7" fill="1" visible="yes" active="yes"/>
<layer number="39" name="tKeepout" color="4" fill="11" visible="yes" active="yes"/>
<layer number="40" name="bKeepout" color="1" fill="11" visible="yes" active="yes"/>
<layer number="41" name="tRestrict" color="4" fill="10" visible="yes" active="yes"/>
<layer number="42" name="bRestrict" color="1" fill="10" visible="yes" active="yes"/>
<layer number="43" name="vRestrict" color="2" fill="10" visible="yes" active="yes"/>
<layer number="44" name="Drills" color="7" fill="1" visible="yes" active="yes"/>
<layer number="45" name="Holes" color="7" fill="1" visible="yes" active="yes"/>
<layer number="46" name="Milling" color="3" fill="1" visible="yes" active="yes"/>
<layer number="47" name="Measures" color="7" fill="1" visible="yes" active="yes"/>
<layer number="48" name="Document" color="7" fill="1" visible="yes" active="yes"/>
<layer number="49" name="Reference" color="7" fill="1" visible="yes" active="yes"/>
<layer number="51" name="tDocu" color="7" fill="1" visible="yes" active="yes"/>
<layer number="52" name="bDocu" color="7" fill="1" visible="yes" active="yes"/>
<layer number="91" name="Nets" color="2" fill="1" visible="yes" active="yes"/>
<layer number="92" name="Busses" color="1" fill="1" visible="yes" active="yes"/>
<layer number="93" name="Pins" color="2" fill="1" visible="yes" active="yes"/>
<layer number="94" name="Symbols" color="4" fill="1" visible="yes" active="yes"/>
<layer number="95" name="Names" color="7" fill="1" visible="yes" active="yes"/>
<layer number="96" name="Values" color="7" fill="1" visible="yes" active="yes"/>
<layer number="97" name="Info" color="7" fill="1" visible="yes" active="yes"/>
<layer number="98" name="Guide" color="6" fill="1" visible="yes" active="yes"/>
<layer number="100" name="Muster" color="7" fill="1" visible="yes" active="yes"/>
<layer number="101" name="Patch_Top" color="7" fill="1" visible="yes" active="yes"/>
<layer number="102" name="Vscore" color="7" fill="1" visible="yes" active="yes"/>
<layer number="103" name="tMap" color="7" fill="1" visible="yes" active="yes"/>
<layer number="104" name="Name" color="7" fill="1" visible="yes" active="yes"/>
<layer number="105" name="tPlate" color="7" fill="1" visible="yes" active="yes"/>
<layer number="106" name="bPlate" color="7" fill="1" visible="yes" active="yes"/>
<layer number="107" name="Crop" color="7" fill="1" visible="yes" active="yes"/>
<layer number="108" name="fp8" color="7" fill="1" visible="yes" active="yes"/>
<layer number="109" name="fp9" color="7" fill="1" visible="yes" active="yes"/>
<layer number="110" name="110" color="7" fill="1" visible="yes" active="yes"/>
<layer number="111" name="111" color="7" fill="1" visible="yes" active="yes"/>
<layer number="112" name="tSilk" color="7" fill="1" visible="yes" active="yes"/>
<layer number="113" name="FRNTTEKEN" color="7" fill="1" visible="yes" active="yes"/>
<layer number="114" name="FRNTMAAT1" color="7" fill="1" visible="yes" active="yes"/>
<layer number="115" name="FRNTMAAT2" color="7" fill="1" visible="yes" active="yes"/>
<layer number="116" name="Patch_BOT" color="7" fill="1" visible="yes" active="yes"/>
<layer number="117" name="BACKMAAT1" color="7" fill="1" visible="yes" active="yes"/>
<layer number="118" name="Rect_Pads" color="7" fill="1" visible="yes" active="yes"/>
<layer number="119" name="KAP_TEKEN" color="7" fill="1" visible="yes" active="yes"/>
<layer number="120" name="KAP_MAAT1" color="7" fill="1" visible="yes" active="yes"/>
<layer number="121" name="_tsilk" color="7" fill="1" visible="yes" active="yes"/>
<layer number="122" name="_bsilk" color="7" fill="1" visible="yes" active="yes"/>
<layer number="123" name="tTestmark" color="7" fill="1" visible="yes" active="yes"/>
<layer number="124" name="bTestmark" color="7" fill="1" visible="yes" active="yes"/>
<layer number="125" name="_tNames" color="7" fill="1" visible="yes" active="yes"/>
<layer number="126" name="_bNames" color="7" fill="1" visible="yes" active="yes"/>
<layer number="127" name="_tValues" color="7" fill="1" visible="yes" active="yes"/>
<layer number="128" name="_bValues" color="7" fill="1" visible="yes" active="yes"/>
<layer number="130" name="SMDSTROOK" color="7" fill="1" visible="yes" active="yes"/>
<layer number="131" name="tAdjust" color="7" fill="1" visible="yes" active="yes"/>
<layer number="132" name="bAdjust" color="7" fill="1" visible="yes" active="yes"/>
<layer number="144" name="Drill_legend" color="7" fill="1" visible="yes" active="yes"/>
<layer number="150" name="Notes" color="7" fill="1" visible="yes" active="yes"/>
<layer number="151" name="HeatSink" color="7" fill="1" visible="yes" active="yes"/>
<layer number="152" name="_bDocu" color="7" fill="1" visible="yes" active="yes"/>
<layer number="153" name="FabDoc1" color="7" fill="1" visible="yes" active="yes"/>
<layer number="154" name="FabDoc2" color="7" fill="1" visible="yes" active="yes"/>
<layer number="155" name="FabDoc3" color="7" fill="1" visible="yes" active="yes"/>
<layer number="199" name="Contour" color="7" fill="1" visible="yes" active="yes"/>
<layer number="200" name="200bmp" color="7" fill="1" visible="yes" active="yes"/>
<layer number="201" name="201bmp" color="7" fill="1" visible="yes" active="yes"/>
<layer number="202" name="202bmp" color="7" fill="1" visible="yes" active="yes"/>
<layer number="203" name="203bmp" color="7" fill="1" visible="yes" active="yes"/>
<layer number="204" name="204bmp" color="7" fill="1" visible="yes" active="yes"/>
<layer number="205" name="205bmp" color="7" fill="1" visible="yes" active="yes"/>
<layer number="206" name="206bmp" color="7" fill="1" visible="yes" active="yes"/>
<layer number="207" name="207bmp" color="7" fill="1" visible="yes" active="yes"/>
<layer number="208" name="208bmp" color="7" fill="1" visible="yes" active="yes"/>
<layer number="209" name="209bmp" color="7" fill="1" visible="yes" active="yes"/>
<layer number="210" name="210bmp" color="7" fill="1" visible="yes" active="yes"/>
<layer number="211" name="211bmp" color="7" fill="1" visible="yes" active="yes"/>
<layer number="212" name="212bmp" color="7" fill="1" visible="yes" active="yes"/>
<layer number="213" name="213bmp" color="7" fill="1" visible="yes" active="yes"/>
<layer number="214" name="214bmp" color="7" fill="1" visible="yes" active="yes"/>
<layer number="215" name="215bmp" color="7" fill="1" visible="yes" active="yes"/>
<layer number="216" name="216bmp" color="7" fill="1" visible="yes" active="yes"/>
<layer number="217" name="217bmp" color="7" fill="1" visible="yes" active="yes"/>
<layer number="218" name="218bmp" color="7" fill="1" visible="yes" active="yes"/>
<layer number="219" name="219bmp" color="7" fill="1" visible="yes" active="yes"/>
<layer number="220" name="220bmp" color="7" fill="1" visible="yes" active="yes"/>
<layer number="221" name="221bmp" color="7" fill="1" visible="yes" active="yes"/>
<layer number="222" name="222bmp" color="7" fill="1" visible="yes" active="yes"/>
<layer number="223" name="223bmp" color="7" fill="1" visible="yes" active="yes"/>
<layer number="224" name="224bmp" color="7" fill="1" visible="yes" active="yes"/>
<layer number="248" name="Housing" color="7" fill="1" visible="yes" active="yes"/>
<layer number="249" name="Edge" color="7" fill="1" visible="yes" active="yes"/>
<layer number="250" name="Descript" color="7" fill="1" visible="yes" active="yes"/>
<layer number="251" name="SMDround" color="7" fill="1" visible="yes" active="yes"/>
<layer number="254" name="cooling" color="7" fill="1" visible="yes" active="yes"/>
<layer number="255" name="Accent" color="7" fill="1" visible="yes" active="yes"/>
</layers>
<library>
<description>Generated from &lt;b&gt;t.sch&lt;/b&gt;&lt;p&gt;
by exp-project-lbr.ulp</description>
<packages>
<package name="NORDICSEMI_2450AT18B100">
<wire x1="2.2" y1="0.9" x2="-2.2" y2="0.9" width="0.2" layer="51"/>
<wire x1="-2.2" y1="0.9" x2="-2.2" y2="-0.9" width="0.2" layer="51"/>
<wire x1="-2.2" y1="-0.9" x2="2.2" y2="-0.9" width="0.2" layer="51"/>
<wire x1="2.2" y1="-0.9" x2="2.2" y2="0.9" width="0.2" layer="51"/>
<wire x1="-1" y1="0.8" x2="1" y2="0.8" width="0.2" layer="21"/>
<wire x1="-1" y1="-0.8" x2="1" y2="-0.8" width="0.2" layer="21"/>
<rectangle x1="-1.2" y1="-0.1" x2="-0.5" y2="0.2" layer="21"/>
<smd name="FP" x="-1.7" y="0" dx="1.6" dy="0.8" layer="1" rot="R90"/>
<smd name="NC" x="1.7" y="0" dx="1.6" dy="0.8" layer="1" rot="R90"/>
<text x="-1.4" y="1.5" size="0.8128" layer="25" font="vector">&gt;Name</text>
<rectangle x1="-1.2" y1="-0.1" x2="-0.5" y2="0.2" layer="51"/>
<text x="-0.5" y="-0.4" size="0.8128" layer="51" font="vector">&gt;Name</text>
</package>
<package name="NORDICSEMI_2450BM14A0002">
<wire x1="-0.9" y1="-0.6" x2="0.9" y2="-0.6" width="0.2" layer="51"/>
<wire x1="0.9" y1="-0.6" x2="0.9" y2="0.6" width="0.2" layer="51"/>
<wire x1="0.9" y1="0.6" x2="-0.9" y2="0.6" width="0.2" layer="51"/>
<wire x1="-0.9" y1="0.6" x2="-0.9" y2="-0.6" width="0.2" layer="51"/>
<rectangle x1="0.39" y1="-0.075" x2="0.63" y2="0.08" layer="51"/>
<smd name="1" x="0.5" y="0.425" dx="0.55" dy="0.25" layer="1" rot="R90"/>
<smd name="2" x="0" y="0.425" dx="0.55" dy="0.25" layer="1" rot="R90"/>
<smd name="3" x="-0.5" y="0.425" dx="0.55" dy="0.25" layer="1" rot="R90"/>
<smd name="4" x="-0.5" y="-0.425" dx="0.55" dy="0.25" layer="1" rot="R90"/>
<smd name="5" x="0" y="-0.425" dx="0.55" dy="0.25" layer="1" rot="R90"/>
<smd name="6" x="0.5" y="-0.425" dx="0.55" dy="0.25" layer="1" rot="R90"/>
<text x="-1.5" y="1.2" size="0.8128" layer="25" font="vector">&gt;Name</text>
<wire x1="-0.9" y1="0.7" x2="-1.1" y2="0.7" width="0.2" layer="21"/>
<wire x1="-1.1" y1="0.7" x2="-1.1" y2="-0.7" width="0.2" layer="21"/>
<wire x1="-1.1" y1="-0.7" x2="-0.9" y2="-0.7" width="0.2" layer="21"/>
<wire x1="0.8" y1="0.7" x2="1.1" y2="0.7" width="0.2" layer="21"/>
<wire x1="1.1" y1="0.7" x2="1.1" y2="-0.7" width="0.2" layer="21"/>
<wire x1="1.1" y1="-0.7" x2="0.9" y2="-0.7" width="0.2" layer="21"/>
<text x="-0.7" y="-0.3" size="0.6096" layer="51" font="vector">&gt;Name</text>
</package>
<package name="NORDICSEMI_QFN48">
<wire x1="-3.1" y1="2.6" x2="-3.1" y2="2.9" width="0.2" layer="21"/>
<wire x1="-3.1" y1="2.9" x2="-3.1" y2="3.1" width="0.2" layer="21"/>
<wire x1="-3.1" y1="3.1" x2="-2.6" y2="3.1" width="0.2" layer="21"/>
<wire x1="3.1" y1="2.6" x2="3.1" y2="3.1" width="0.2" layer="21"/>
<wire x1="3.1" y1="-3.1" x2="2.6" y2="-3.1" width="0.2" layer="21"/>
<wire x1="-3.1" y1="-2.6" x2="-3.1" y2="-3.1" width="0.2" layer="21"/>
<wire x1="2.6" y1="3.1" x2="3.1" y2="3.1" width="0.2" layer="21"/>
<wire x1="3.1" y1="-3.1" x2="3.1" y2="-2.6" width="0.2" layer="21"/>
<wire x1="-2.6" y1="-3.1" x2="-3.1" y2="-3.1" width="0.2" layer="21"/>
<smd name="1" x="-3.2" y="2.2" dx="1.2" dy="0.2" layer="1"/>
<smd name="2" x="-3.2" y="1.8" dx="1.2" dy="0.2" layer="1"/>
<smd name="3" x="-3.2" y="1.4" dx="1.2" dy="0.2" layer="1"/>
<smd name="4" x="-3.2" y="1" dx="1.2" dy="0.2" layer="1"/>
<smd name="5" x="-3.2" y="0.6" dx="1.2" dy="0.2" layer="1"/>
<smd name="6" x="-3.2" y="0.2" dx="1.2" dy="0.2" layer="1"/>
<smd name="7" x="-3.2" y="-0.2" dx="1.2" dy="0.2" layer="1"/>
<smd name="8" x="-3.2" y="-0.6" dx="1.2" dy="0.2" layer="1"/>
<smd name="9" x="-3.2" y="-1" dx="1.2" dy="0.2" layer="1"/>
<smd name="10" x="-3.2" y="-1.4" dx="1.2" dy="0.2" layer="1"/>
<smd name="11" x="-3.2" y="-1.8" dx="1.2" dy="0.2" layer="1"/>
<smd name="12" x="-3.2" y="-2.2" dx="1.2" dy="0.2" layer="1"/>
<smd name="13" x="-2.2" y="-3.2" dx="1.2" dy="0.2" layer="1" rot="R90"/>
<smd name="14" x="-1.8" y="-3.2" dx="1.2" dy="0.2" layer="1" rot="R90"/>
<smd name="15" x="-1.4" y="-3.2" dx="1.2" dy="0.2" layer="1" rot="R90"/>
<smd name="16" x="-1" y="-3.2" dx="1.2" dy="0.2" layer="1" rot="R90"/>
<smd name="17" x="-0.6" y="-3.2" dx="1.2" dy="0.2" layer="1" rot="R90"/>
<smd name="18" x="-0.2" y="-3.2" dx="1.2" dy="0.2" layer="1" rot="R90"/>
<smd name="19" x="0.2" y="-3.2" dx="1.2" dy="0.2" layer="1" rot="R90"/>
<smd name="20" x="0.6" y="-3.2" dx="1.2" dy="0.2" layer="1" rot="R90"/>
<smd name="21" x="1" y="-3.2" dx="1.2" dy="0.2" layer="1" rot="R90"/>
<smd name="22" x="1.4" y="-3.2" dx="1.2" dy="0.2" layer="1" rot="R90"/>
<smd name="23" x="1.8" y="-3.2" dx="1.2" dy="0.2" layer="1" rot="R90"/>
<smd name="24" x="2.2" y="-3.2" dx="1.2" dy="0.2" layer="1" rot="R90"/>
<smd name="25" x="3.2" y="-2.2" dx="1.2" dy="0.2" layer="1" rot="R180"/>
<smd name="26" x="3.2" y="-1.8" dx="1.2" dy="0.2" layer="1" rot="R180"/>
<smd name="27" x="3.2" y="-1.4" dx="1.2" dy="0.2" layer="1" rot="R180"/>
<smd name="28" x="3.2" y="-1" dx="1.2" dy="0.2" layer="1" rot="R180"/>
<smd name="29" x="3.2" y="-0.6" dx="1.2" dy="0.2" layer="1" rot="R180"/>
<smd name="30" x="3.2" y="-0.2" dx="1.2" dy="0.2" layer="1" rot="R180"/>
<smd name="31" x="3.2" y="0.2" dx="1.2" dy="0.2" layer="1" rot="R180"/>
<smd name="32" x="3.2" y="0.6" dx="1.2" dy="0.2" layer="1" rot="R180"/>
<smd name="33" x="3.2" y="1" dx="1.2" dy="0.2" layer="1" rot="R180"/>
<smd name="34" x="3.2" y="1.4" dx="1.2" dy="0.2" layer="1" rot="R180"/>
<smd name="35" x="3.2" y="1.8" dx="1.2" dy="0.2" layer="1" rot="R180"/>
<smd name="36" x="3.2" y="2.2" dx="1.2" dy="0.2" layer="1" rot="R180"/>
<smd name="37" x="2.2" y="3.2" dx="1.2" dy="0.2" layer="1" rot="R270"/>
<smd name="38" x="1.8" y="3.2" dx="1.2" dy="0.2" layer="1" rot="R270"/>
<smd name="39" x="1.4" y="3.2" dx="1.2" dy="0.2" layer="1" rot="R270"/>
<smd name="40" x="1" y="3.2" dx="1.2" dy="0.2" layer="1" rot="R270"/>
<smd name="41" x="0.6" y="3.2" dx="1.2" dy="0.2" layer="1" rot="R270"/>
<smd name="42" x="0.2" y="3.2" dx="1.2" dy="0.2" layer="1" rot="R270"/>
<smd name="43" x="-0.2" y="3.2" dx="1.2" dy="0.2" layer="1" rot="R270"/>
<smd name="44" x="-0.6" y="3.2" dx="1.2" dy="0.2" layer="1" rot="R270"/>
<smd name="45" x="-1" y="3.2" dx="1.2" dy="0.2" layer="1" rot="R270"/>
<smd name="46" x="-1.4" y="3.2" dx="1.2" dy="0.2" layer="1" rot="R270"/>
<smd name="47" x="-1.8" y="3.2" dx="1.2" dy="0.2" layer="1" rot="R270"/>
<smd name="48" x="-2.2" y="3.2" dx="1.2" dy="0.2" layer="1" rot="R270"/>
<smd name="GND" x="0" y="0" dx="4.2" dy="4.2" layer="1"/>
<text x="-1.4" y="4.3" size="0.8128" layer="25" font="vector">&gt;Name</text>
<wire x1="-3.1" y1="2.6" x2="-2.6" y2="3.1" width="0.2" layer="21"/>
<wire x1="-2.6" y1="3.1" x2="-3.1" y2="2.9" width="0.2" layer="21"/>
<wire x1="-3.1" y1="2.9" x2="-2.9" y2="2.9" width="0.2" layer="21"/>
<text x="-3.2" y="3.2" size="0.8128" layer="21" font="vector" ratio="30" rot="R90">&gt;o</text>
<wire x1="-3.1" y1="3.1" x2="-3.1" y2="-3.1" width="0.2" layer="51"/>
<wire x1="-3.1" y1="-3.1" x2="3.1" y2="-3.1" width="0.2" layer="51"/>
<wire x1="3.1" y1="-3.1" x2="3.1" y2="3.1" width="0.2" layer="51"/>
<wire x1="3.1" y1="3.1" x2="-3.1" y2="3.1" width="0.2" layer="51"/>
<circle x="-2.4" y="2.4" radius="0.3" width="0.2" layer="51"/>
<text x="-1.7" y="-0.4" size="0.8128" layer="51" font="vector">&gt;Name</text>
<polygon width="0.2" layer="41">
<vertex x="-2.7" y="0.2"/>
<vertex x="-0.2" y="0.2"/>
<vertex x="-0.2" y="2.7"/>
<vertex x="0.2" y="2.7"/>
<vertex x="0.2" y="1.5"/>
<vertex x="0.2" y="0.2"/>
<vertex x="2.7" y="0.2"/>
<vertex x="2.7" y="-0.2"/>
<vertex x="0.2" y="-0.2"/>
<vertex x="0.2" y="-2.7"/>
<vertex x="-0.2" y="-2.7"/>
<vertex x="-0.2" y="-2.3"/>
<vertex x="-0.2" y="-0.2"/>
<vertex x="-2.7" y="-0.2"/>
</polygon>
<wire x1="2.9" y1="1.2" x2="3.5" y2="1.2" width="0.2" layer="41"/>
<wire x1="-2.4" y1="-3.5" x2="-2.4" y2="-2.9" width="0.2" layer="41"/>
</package>
</packages>
<symbols>
<symbol name="NORDICSEMI_ANTENA-JOHANSON">
<wire x1="0" y1="0" x2="0" y2="2.54" width="0.254" layer="94"/>
<wire x1="0" y1="2.54" x2="1.524" y2="2.54" width="0.254" layer="94"/>
<wire x1="1.524" y1="2.54" x2="2.54" y2="2.54" width="0.254" layer="94"/>
<wire x1="2.54" y1="2.54" x2="5.08" y2="2.54" width="0.254" layer="94"/>
<wire x1="5.08" y1="2.54" x2="5.08" y2="0" width="0.254" layer="94"/>
<wire x1="2.54" y1="2.54" x2="2.54" y2="5.08" width="0.254" layer="94"/>
<wire x1="0.254" y1="5.08" x2="2.032" y2="7.112" width="0.254" layer="94" curve="-90"/>
<wire x1="-0.508" y1="5.08" x2="2.032" y2="7.874" width="0.254" layer="94" curve="-90"/>
<wire x1="-1.27" y1="5.08" x2="2.032" y2="8.636" width="0.254" layer="94" curve="-90"/>
<wire x1="-2.032" y1="5.08" x2="-2.032" y2="5.334" width="0.254" layer="94"/>
<wire x1="-2.032" y1="5.334" x2="2.032" y2="9.398" width="0.254" layer="94" curve="-90"/>
<wire x1="-2.794" y1="5.08" x2="-2.794" y2="5.334" width="0.254" layer="94"/>
<wire x1="-2.794" y1="5.334" x2="2.032" y2="10.16" width="0.254" layer="94" curve="-90"/>
<wire x1="2.54" y1="5.08" x2="1.524" y2="5.08" width="0.254" layer="94"/>
<wire x1="1.524" y1="5.08" x2="1.524" y2="2.54" width="0.254" layer="94"/>
<pin name="FP" x="-2.54" y="0" visible="off" length="short"/>
<pin name="NC" x="7.62" y="0" visible="off" length="short" direction="nc" rot="R180"/>
<text x="5.08" y="7.62" size="1.778" layer="95" font="vector">&gt;Value</text>
<text x="-10.16" y="7.62" size="1.778" layer="95" font="vector">&gt;Name</text>
</symbol>
<symbol name="NORDICSEMI_BALUN-JOHANSON">
<wire x1="-5.08" y1="7.62" x2="-5.08" y2="-7.62" width="0.254" layer="94"/>
<wire x1="-5.08" y1="-7.62" x2="5.08" y2="-7.62" width="0.254" layer="94"/>
<wire x1="5.08" y1="-7.62" x2="5.08" y2="7.62" width="0.254" layer="94"/>
<wire x1="5.08" y1="7.62" x2="-5.08" y2="7.62" width="0.254" layer="94"/>
<pin name="BAL1" x="-2.54" y="10.16" length="short" direction="pas" rot="R270"/>
<pin name="BAL2" x="-2.54" y="-10.16" length="short" direction="pas" rot="R90"/>
<pin name="DC" x="0" y="-10.16" length="short" direction="pas" rot="R90"/>
<pin name="GND" x="0" y="10.16" length="short" direction="pas" rot="R270"/>
<pin name="NC" x="2.54" y="-10.16" length="short" direction="pas" rot="R90"/>
<pin name="UNBL" x="2.54" y="10.16" length="short" direction="pas" rot="R270"/>
<text x="-5.08" y="12.7" size="1.778" layer="95" font="vector">&gt;Name</text>
<text x="-5.08" y="-15.24" size="1.778" layer="96" font="vector">&gt;Value</text>
</symbol>
<symbol name="NORDICSEMI_NRF51822">
<wire x1="-22.86" y1="-25.4" x2="-22.86" y2="22.86" width="0.254" layer="94"/>
<wire x1="-22.86" y1="22.86" x2="25.4" y2="22.86" width="0.254" layer="94"/>
<wire x1="25.4" y1="22.86" x2="25.4" y2="-25.4" width="0.254" layer="94"/>
<wire x1="25.4" y1="-25.4" x2="-22.86" y2="-25.4" width="0.254" layer="94"/>
<pin name="ANT1" x="27.94" y="0" length="short" direction="pas" rot="R180"/>
<pin name="ANT2" x="27.94" y="2.54" length="short" direction="pas" rot="R180"/>
<pin name="AVDD@35" x="27.94" y="10.16" length="short" direction="pwr" rot="R180"/>
<pin name="AVDD@36" x="27.94" y="12.7" length="short" direction="pwr" rot="R180"/>
<pin name="DCC" x="-25.4" y="10.16" length="short" direction="pas"/>
<pin name="DEC1" x="10.16" y="25.4" length="short" direction="pas" rot="R270"/>
<pin name="DEC2" x="27.94" y="-5.08" length="short" direction="pas" rot="R180"/>
<pin name="PAD" x="-5.08" y="-7.62" visible="pin" length="short" direction="pwr"/>
<pin name="P0.00" x="-25.4" y="5.08" length="short"/>
<pin name="P0.01" x="-25.4" y="2.54" length="short"/>
<pin name="P0.02" x="-25.4" y="0" length="short"/>
<pin name="P0.03" x="-25.4" y="-2.54" length="short"/>
<pin name="P0.04" x="-25.4" y="-5.08" length="short"/>
<pin name="P0.05" x="-25.4" y="-7.62" length="short"/>
<pin name="P0.06" x="-25.4" y="-10.16" length="short"/>
<pin name="P0.07" x="-25.4" y="-12.7" length="short"/>
<pin name="P0.08" x="-10.16" y="-27.94" length="short" rot="R90"/>
<pin name="P0.09" x="-7.62" y="-27.94" length="short" rot="R90"/>
<pin name="P0.10" x="-5.08" y="-27.94" length="short" rot="R90"/>
<pin name="P0.11" x="-2.54" y="-27.94" length="short" rot="R90"/>
<pin name="P0.12" x="0" y="-27.94" length="short" rot="R90"/>
<pin name="P0.13" x="2.54" y="-27.94" length="short" rot="R90"/>
<pin name="P0.14" x="5.08" y="-27.94" length="short" rot="R90"/>
<pin name="P0.15" x="7.62" y="-27.94" length="short" rot="R90"/>
<pin name="P0.16" x="10.16" y="-27.94" length="short" rot="R90"/>
<pin name="P0.17" x="27.94" y="-15.24" length="short" rot="R180"/>
<pin name="P0.18" x="27.94" y="-12.7" length="short" rot="R180"/>
<pin name="P0.19" x="27.94" y="-10.16" length="short" rot="R180"/>
<pin name="P0.20" x="27.94" y="-7.62" length="short" rot="R180"/>
<pin name="P0.21" x="7.62" y="25.4" length="short" rot="R270"/>
<pin name="P0.22" x="5.08" y="25.4" length="short" rot="R270"/>
<pin name="P0.23" x="2.54" y="25.4" length="short" rot="R270"/>
<pin name="P0.24" x="0" y="25.4" length="short" rot="R270"/>
<pin name="P0.25" x="-2.54" y="25.4" length="short" rot="R270"/>
<pin name="P0.26" x="-5.08" y="25.4" length="short" rot="R270"/>
<pin name="P0.27" x="-7.62" y="25.4" length="short" rot="R270"/>
<pin name="P0.28" x="-10.16" y="25.4" length="short" rot="R270"/>
<pin name="P0.29" x="-12.7" y="25.4" length="short" rot="R270"/>
<pin name="P0.30" x="-25.4" y="7.62" length="short"/>
<pin name="SWDCLK" x="15.24" y="-27.94" length="short" rot="R90"/>
<pin name="SWDIO/NRESET" x="12.7" y="-27.94" length="short" rot="R90"/>
<pin name="VDD@1" x="-25.4" y="12.7" length="short" direction="pwr"/>
<pin name="VDD@12" x="-25.4" y="-15.24" length="short" direction="pwr"/>
<pin name="VDD_PA" x="27.94" y="-2.54" length="short" direction="pwr" rot="R180"/>
<pin name="VSS@13" x="-12.7" y="-27.94" length="short" direction="pwr" rot="R90"/>
<pin name="VSS@33" x="27.94" y="5.08" length="short" direction="pwr" rot="R180"/>
<pin name="VSS@34" x="27.94" y="7.62" length="short" direction="pwr" rot="R180"/>
<pin name="XC1" x="15.24" y="25.4" length="short" direction="pas" rot="R270"/>
<pin name="XC2" x="12.7" y="25.4" length="short" direction="pas" rot="R270"/>
<text x="-5.08" y="7.62" size="1.778" layer="95" font="vector">&gt;Name</text>
<text x="2.54" y="5.08" size="1.778" layer="96" font="vector" rot="R180">&gt;Value</text>
</symbol>
</symbols>
<devicesets>
<deviceset name="NORDICSEMI_ANTENA-2450AT">
<description>General Specifications:
Part Number 2450AT18B100 
Input Power 3W max.
Frequency Range 2400 - 2500 Mhz
Impedance 50 Ω
Peak Gain 0.5 dBi typ. (XZ-V) 
Operating Temperature -40 to +85°C
Average Gain -0.5 dBi typ. (XZ-V) 
Reel Quanity 3,000
Return Loss 9.5 dB min</description>
<gates>
<gate name="G$1" symbol="NORDICSEMI_ANTENA-JOHANSON" x="-2.54" y="0"/>
</gates>
<devices>
<device name="" package="NORDICSEMI_2450AT18B100">
<connects>
<connect gate="G$1" pin="FP" pad="FP"/>
<connect gate="G$1" pin="NC" pad="NC"/>
</connects>
<technologies>
<technology name=""/>
</technologies>
</device>
</devices>
</deviceset>
<deviceset name="NORDICSEMI_BALUN-2450BM">
<description>General Specifications:
Part Number 2450BM14A0002
Insertion Loss 2.0 dB max.
Frequency (MHz) 2400 - 2500
Return Loss 9.5 dB min.
Unbalanced Impedance 50 Ω
Phase Difference 160° ± 15°
Amplitude Difference 3.5 ± 1.5 dB 
Reel Quanity 4,000
Operating Temperature -40 to +85°C
Attenuation: Common Mode 2.45 GHz 
Impedance Matched Balun-Filter: Optimized for Nordic s Chipset nRF24L01/+
Differential Balanced Impedance Conjugate match to Nordic 
nRF24L01/nRF24L01+
Attenuation: Differential Mode 15 min.@4800~5000MHz
15 min.@7200~7500MHz'</description>
<gates>
<gate name="G$1" symbol="NORDICSEMI_BALUN-JOHANSON" x="0" y="0"/>
</gates>
<devices>
<device name="" package="NORDICSEMI_2450BM14A0002">
<connects>
<connect gate="G$1" pin="BAL1" pad="3"/>
<connect gate="G$1" pin="BAL2" pad="4"/>
<connect gate="G$1" pin="DC" pad="5"/>
<connect gate="G$1" pin="GND" pad="2"/>
<connect gate="G$1" pin="NC" pad="6"/>
<connect gate="G$1" pin="UNBL" pad="1"/>
</connects>
<technologies>
<technology name=""/>
</technologies>
</device>
</devices>
</deviceset>
<deviceset name="NORDICSEMI_NRF51822">
<description>Bluetooth 4.0 Low Energy/2.4Ghz
NORDIC SEMICONDUCTOR</description>
<gates>
<gate name="G$1" symbol="NORDICSEMI_NRF51822" x="-2.54" y="-2.54"/>
</gates>
<devices>
<device name="" package="NORDICSEMI_QFN48">
<connects>
<connect gate="G$1" pin="ANT1" pad="31"/>
<connect gate="G$1" pin="ANT2" pad="32"/>
<connect gate="G$1" pin="AVDD@35" pad="35"/>
<connect gate="G$1" pin="AVDD@36" pad="36"/>
<connect gate="G$1" pin="DCC" pad="2"/>
<connect gate="G$1" pin="DEC1" pad="39"/>
<connect gate="G$1" pin="DEC2" pad="29"/>
<connect gate="G$1" pin="P0.00" pad="4"/>
<connect gate="G$1" pin="P0.01" pad="5"/>
<connect gate="G$1" pin="P0.02" pad="6"/>
<connect gate="G$1" pin="P0.03" pad="7"/>
<connect gate="G$1" pin="P0.04" pad="8"/>
<connect gate="G$1" pin="P0.05" pad="9"/>
<connect gate="G$1" pin="P0.06" pad="10"/>
<connect gate="G$1" pin="P0.07" pad="11"/>
<connect gate="G$1" pin="P0.08" pad="14"/>
<connect gate="G$1" pin="P0.09" pad="15"/>
<connect gate="G$1" pin="P0.10" pad="16"/>
<connect gate="G$1" pin="P0.11" pad="17"/>
<connect gate="G$1" pin="P0.12" pad="18"/>
<connect gate="G$1" pin="P0.13" pad="19"/>
<connect gate="G$1" pin="P0.14" pad="20"/>
<connect gate="G$1" pin="P0.15" pad="21"/>
<connect gate="G$1" pin="P0.16" pad="22"/>
<connect gate="G$1" pin="P0.17" pad="25"/>
<connect gate="G$1" pin="P0.18" pad="26"/>
<connect gate="G$1" pin="P0.19" pad="27"/>
<connect gate="G$1" pin="P0.20" pad="28"/>
<connect gate="G$1" pin="P0.21" pad="40"/>
<connect gate="G$1" pin="P0.22" pad="41"/>
<connect gate="G$1" pin="P0.23" pad="42"/>
<connect gate="G$1" pin="P0.24" pad="43"/>
<connect gate="G$1" pin="P0.25" pad="44"/>
<connect gate="G$1" pin="P0.26" pad="45"/>
<connect gate="G$1" pin="P0.27" pad="46"/>
<connect gate="G$1" pin="P0.28" pad="47"/>
<connect gate="G$1" pin="P0.29" pad="48"/>
<connect gate="G$1" pin="P0.30" pad="3"/>
<connect gate="G$1" pin="PAD" pad="GND"/>
<connect gate="G$1" pin="SWDCLK" pad="24"/>
<connect gate="G$1" pin="SWDIO/NRESET" pad="23"/>
<connect gate="G$1" pin="VDD@1" pad="1"/>
<connect gate="G$1" pin="VDD@12" pad="12"/>
<connect gate="G$1" pin="VDD_PA" pad="30"/>
<connect gate="G$1" pin="VSS@13" pad="13"/>
<connect gate="G$1" pin="VSS@33" pad="33"/>
<connect gate="G$1" pin="VSS@34" pad="34"/>
<connect gate="G$1" pin="XC1" pad="37"/>
<connect gate="G$1" pin="XC2" pad="38"/>
</connects>
<technologies>
<technology name=""/>
</technologies>
</device>
</devices>
</deviceset>
</devicesets>
</library>
</drawing>
</eagle>
